…
``` r
#now that our beermeta's X1 is labeled correctly and corresponds with the actual number of the document, we can join the two datasets using X1 

beer.final <- beermeta %>%
  left_join(theta.clean, by = "X1")
```

Awesome, now we have a data frame with all our variables of interest, based on the documents that STM used for the text processing, notice that we started with 8459, and now we have 8285. So what can we do now exactly?

We know *who* tweeted *what* and *when* (on what day). From this we can do the following: *find the most tweeted topic by beer company *find the most favorited topic

    ## # A tibble: 161 × 3
    ##        screenName topic     n
    ##             <chr> <int> <int>
    ## 1      GuinnessUS    39   623
    ## 2  BlueMoonBrewCo    41   445
    ## 3  BlueMoonBrewCo    21   444
    ## 4        DosEquis    13   442
    ## 5  BlueMoonBrewCo    15   355
    ## 6  BlueMoonBrewCo    33   306
    ## 7  BlueMoonBrewCo    46   274
    ## 8        budlight    26   267
    ## 9  BlueMoonBrewCo     9   231
    ## 10       tsingtao    43   229
    ## # ... with 151 more rows
…
    ## # A tibble: 161 × 3
    ##        screenName topic favorites
    ##             <chr> <int>     <int>
    ## 1        DosEquis    13     13849
    ## 2        DosEquis     8      9612
    ## 3      GuinnessUS    39      8285
    ## 4        DosEquis    10      5607
    ## 5        DosEquis    16      5512
    ## 6        DosEquis    45      4707
    ## 7        DosEquis    42      2910
    ## 8  BlueMoonBrewCo    46      2251
    ## 9        DosEquis    27      1931
    ## 10       DosEquis    11      1684
    ## # ... with 151 more rows
…
